# Blender MTL File: 'None'
# Material Count: 57

newmtl beaded_curtain.001
Ns 92.156863
Ka 0.000000 0.000000 0.000000
Kd 0.512000 0.512000 0.512000
Ks 0.500000 0.500000 0.500000
Ke 0.000000 0.000000 0.000000
Ni 1.000000
d 1.000000
illum 2
map_Kd /home/ankur/texture_library/curtain/curtainp2.jpg

newmtl ceiling.009
Ns 94.117647
Ka 0.000000 0.000000 0.000000
Kd 0.640000 0.640000 0.640000
Ks 0.500000 0.500000 0.500000
Ke 0.000000 0.000000 0.000000
Ni 1.000000
d 1.000000
illum 2
map_Kd /home/ankur/texture_library/ceiling/CEILING-TILE-VOL2_08.jpg

newmtl decorative_frame.001
Ns 92.156863
Ka 0.000000 0.000000 0.000000
Kd 0.512000 0.512000 0.512000
Ks 0.500000 0.500000 0.500000
Ke 0.000000 0.000000 0.000000
Ni 1.000000
d 1.000000
illum 2
map_Kd ../texture_library/duvet/8a7a884e0ffe99a1e5159472cfd234b7.jpg

newmtl decorative_plant.006
Ns 92.156863
Ka 0.000000 0.000000 0.000000
Kd 0.512000 0.512000 0.512000
Ks 0.500000 0.500000 0.500000
Ke 0.000000 0.000000 0.000000
Ni 1.000000
d 1.000000
illum 2
map_Kd /home/ankur/texture_library/plant/2174a599b0981ce48a96e637c300f63a.jpg

newmtl decorative_plant.008
Ns 92.156863
Ka 0.000000 0.000000 0.000000
Kd 0.512000 0.512000 0.512000
Ks 0.500000 0.500000 0.500000
Ke 0.000000 0.000000 0.000000
Ni 1.000000
d 1.000000
illum 2
map_Kd /home/ankur/texture_library/plant/2174a599b0981ce48a96e637c300f63a.jpg

newmtl decorative_plant_pot.005
Ns 92.156863
Ka 0.000000 0.000000 0.000000
Kd 0.512000 0.512000 0.512000
Ks 0.500000 0.500000 0.500000
Ke 0.000000 0.000000 0.000000
Ni 1.000000
d 1.000000
illum 2
map_Kd /home/ankur/texture_library/plant/2174a599b0981ce48a96e637c300f63a.jpg

newmtl door.001
Ns 92.156863
Ka 0.000000 0.000000 0.000000
Kd 0.512000 0.512000 0.512000
Ks 0.500000 0.500000 0.500000
Ke 0.000000 0.000000 0.000000
Ni 1.000000
d 1.000000
illum 2
map_Kd /home/ankur/texture_library/door/white-door-texture.jpg

newmtl door_handle.005
Ns 92.156863
Ka 0.000000 0.000000 0.000000
Kd 0.512000 0.512000 0.512000
Ks 0.500000 0.500000 0.500000
Ke 0.000000 0.000000 0.000000
Ni 1.000000
d 1.000000
illum 2
map_Kd /home/ankur/texture_library/door/white-door-texture.jpg

newmtl door_handle.006
Ns 92.156863
Ka 0.000000 0.000000 0.000000
Kd 0.512000 0.512000 0.512000
Ks 0.500000 0.500000 0.500000
Ke 0.000000 0.000000 0.000000
Ni 1.000000
d 1.000000
illum 2
map_Kd /home/ankur/texture_library/door/white-door-texture.jpg

newmtl door_handle.007
Ns 92.156863
Ka 0.000000 0.000000 0.000000
Kd 0.512000 0.512000 0.512000
Ks 0.500000 0.500000 0.500000
Ke 0.000000 0.000000 0.000000
Ni 1.000000
d 1.000000
illum 2
map_Kd /home/ankur/texture_library/door/white-door-texture.jpg

newmtl door_handle.008
Ns 92.156863
Ka 0.000000 0.000000 0.000000
Kd 0.512000 0.512000 0.512000
Ks 0.500000 0.500000 0.500000
Ke 0.000000 0.000000 0.000000
Ni 1.000000
d 1.000000
illum 2
map_Kd /home/ankur/texture_library/door/6672bedd7f0ab76a2e5871feb3895412.jpg

newmtl door_handle.009
Ns 92.156863
Ka 0.000000 0.000000 0.000000
Kd 0.512000 0.512000 0.512000
Ks 0.500000 0.500000 0.500000
Ke 0.000000 0.000000 0.000000
Ni 1.000000
d 1.000000
illum 2
map_Kd /home/ankur/texture_library/door/Vintage-brown-wood-door-texture-0.jpg

newmtl false_ceiling.002
Ns 92.156863
Ka 0.000000 0.000000 0.000000
Kd 0.512000 0.512000 0.512000
Ks 0.500000 0.500000 0.500000
Ke 0.000000 0.000000 0.000000
Ni 1.000000
d 1.000000
illum 2
map_Kd /home/ankur/texture_library/ceiling/CEILING-TILE-VOL2_08.jpg

newmtl false_ceiling.003
Ns 92.156863
Ka 0.000000 0.000000 0.000000
Kd 0.512000 0.512000 0.512000
Ks 0.500000 0.500000 0.500000
Ke 0.000000 0.000000 0.000000
Ni 1.000000
d 1.000000
illum 2
map_Kd /home/ankur/texture_library/ceiling/CEILING-TILE-VOL2_08.jpg

newmtl false_wall.002
Ns 92.156863
Ka 0.000000 0.000000 0.000000
Kd 0.512000 0.512000 0.512000
Ks 0.500000 0.500000 0.500000
Ke 0.000000 0.000000 0.000000
Ni 1.000000
d 1.000000
illum 2
map_Kd /home/ankur/texture_library/wall/30b23c6de6e5a82a3a6330f7f6590dd0.jpg

newmtl false_wall.003
Ns 92.156863
Ka 0.000000 0.000000 0.000000
Kd 0.512000 0.512000 0.512000
Ks 0.500000 0.500000 0.500000
Ke 0.000000 0.000000 0.000000
Ni 1.000000
d 1.000000
illum 2
map_Kd /home/ankur/texture_library/wall/images.jpg

newmtl floor.004
Ns 92.156863
Ka 0.000000 0.000000 0.000000
Kd 0.512000 0.512000 0.512000
Ks 0.500000 0.500000 0.500000
Ke 0.000000 0.000000 0.000000
Ni 1.000000
d 1.000000
illum 2
map_Kd /home/ankur/texture_library/floor/images.jpg

newmtl floor.005
Ns 94.117647
Ka 0.000000 0.000000 0.000000
Kd 0.640000 0.640000 0.640000
Ks 0.500000 0.500000 0.500000
Ke 0.000000 0.000000 0.000000
Ni 1.000000
d 1.000000
illum 2
map_Kd /home/ankur/texture_library/floor/rug_closeup_9280130.JPG

newmtl furniture.003
Ns 94.117647
Ka 0.000000 0.000000 0.000000
Kd 0.640000 0.640000 0.640000
Ks 0.500000 0.500000 0.500000
Ke 0.000000 0.000000 0.000000
Ni 1.000000
d 1.000000
illum 2
map_Kd ../texture_library/furniture/5a37400d95f0065041855d70de05f965.jpg

newmtl glass_wall_part.001
Ns 92.156863
Ka 0.000000 0.000000 0.000000
Kd 0.512000 0.512000 0.512000
Ks 0.500000 0.500000 0.500000
Ke 0.000000 0.000000 0.000000
Ni 1.000000
d 1.000000
illum 2
map_Kd /home/ankur/texture_library/wall/images.jpg

newmtl mirror.001
Ns 92.156863
Ka 0.000000 0.000000 0.000000
Kd 0.512000 0.512000 0.512000
Ks 0.500000 0.500000 0.500000
Ke 0.000000 0.000000 0.000000
Ni 1.000000
d 1.000000
illum 2
map_Kd /home/ankur/texture_library/painting/873a6120c92ba8d436014a54ef1fe8fe.jpg

newmtl mirror_frame.001
Ns 92.156863
Ka 0.000000 0.000000 0.000000
Kd 0.512000 0.512000 0.512000
Ks 0.500000 0.500000 0.500000
Ke 0.000000 0.000000 0.000000
Ni 1.000000
d 1.000000
illum 2
map_Kd /home/ankur/texture_library/painting/28a89d52365e81c3310486639c84e4e8.jpg

newmtl shelf.003
Ns 92.156863
Ka 0.000000 0.000000 0.000000
Kd 0.512000 0.512000 0.512000
Ks 0.500000 0.500000 0.500000
Ke 0.000000 0.000000 0.000000
Ni 1.000000
d 1.000000
illum 2
map_Kd /home/ankur/texture_library/shelf/465_13_wood-textures-desktop-background.jpg

newmtl shelf.004
Ns 92.156863
Ka 0.000000 0.000000 0.000000
Kd 0.512000 0.512000 0.512000
Ks 0.500000 0.500000 0.500000
Ke 0.000000 0.000000 0.000000
Ni 1.000000
d 1.000000
illum 2
map_Kd /home/ankur/texture_library/shelf/465_13_wood-textures-desktop-background.jpg

newmtl shelf.005
Ns 92.156863
Ka 0.000000 0.000000 0.000000
Kd 0.512000 0.512000 0.512000
Ks 0.500000 0.500000 0.500000
Ke 0.000000 0.000000 0.000000
Ni 1.000000
d 1.000000
illum 2
map_Kd /home/ankur/texture_library/shelf/465_13_wood-textures-desktop-background.jpg

newmtl stud.002
Ns 92.156863
Ka 0.000000 0.000000 0.000000
Kd 0.512000 0.512000 0.512000
Ks 0.500000 0.500000 0.500000
Ke 0.000000 0.000000 0.000000
Ni 1.000000
d 1.000000
illum 2
map_Kd ../texture_library/duvet/8a7a884e0ffe99a1e5159472cfd234b7.jpg

newmtl stud.003
Ns 92.156863
Ka 0.000000 0.000000 0.000000
Kd 0.512000 0.512000 0.512000
Ks 0.500000 0.500000 0.500000
Ke 0.000000 0.000000 0.000000
Ni 1.000000
d 1.000000
illum 2
map_Kd ../texture_library/duvet/8a7a884e0ffe99a1e5159472cfd234b7.jpg

newmtl suspended_luminaire.012
Ns 92.156863
Ka 0.000000 0.000000 0.000000
Kd 0.512000 0.512000 0.512000
Ks 0.500000 0.500000 0.500000
Ke 0.000000 0.000000 0.000000
Ni 1.000000
d 1.000000
illum 2
map_Kd ../texture_library/duvet/8a7a884e0ffe99a1e5159472cfd234b7.jpg

newmtl suspended_luminaire.013
Ns 92.156863
Ka 0.000000 0.000000 0.000000
Kd 0.512000 0.512000 0.512000
Ks 0.500000 0.500000 0.500000
Ke 0.000000 0.000000 0.000000
Ni 1.000000
d 1.000000
illum 2
map_Kd ../texture_library/duvet/8a7a884e0ffe99a1e5159472cfd234b7.jpg

newmtl suspended_luminaire.014
Ns 92.156863
Ka 0.000000 0.000000 0.000000
Kd 0.512000 0.512000 0.512000
Ks 0.500000 0.500000 0.500000
Ke 0.000000 0.000000 0.000000
Ni 1.000000
d 1.000000
illum 2
map_Kd ../texture_library/lamp/lamp_shade_texture_5_by_fotolover14.jpg

newmtl suspended_luminaire.015
Ns 92.156863
Ka 0.000000 0.000000 0.000000
Kd 0.512000 0.512000 0.512000
Ks 0.500000 0.500000 0.500000
Ke 0.000000 0.000000 0.000000
Ni 1.000000
d 1.000000
illum 2
map_Kd ../texture_library/duvet/8a7a884e0ffe99a1e5159472cfd234b7.jpg

newmtl suspended_luminaire.016
Ns 92.156863
Ka 0.000000 0.000000 0.000000
Kd 0.512000 0.512000 0.512000
Ks 0.500000 0.500000 0.500000
Ke 0.000000 0.000000 0.000000
Ni 1.000000
d 1.000000
illum 2
map_Kd ../texture_library/duvet/8a7a884e0ffe99a1e5159472cfd234b7.jpg

newmtl suspended_luminaire.017
Ns 92.156863
Ka 0.000000 0.000000 0.000000
Kd 0.512000 0.512000 0.512000
Ks 0.500000 0.500000 0.500000
Ke 0.000000 0.000000 0.000000
Ni 1.000000
d 1.000000
illum 2
map_Kd ../texture_library/duvet/8a7a884e0ffe99a1e5159472cfd234b7.jpg

newmtl suspended_luminaire.018
Ns 92.156863
Ka 0.000000 0.000000 0.000000
Kd 0.512000 0.512000 0.512000
Ks 0.500000 0.500000 0.500000
Ke 0.000000 0.000000 0.000000
Ni 1.000000
d 1.000000
illum 2
map_Kd ../texture_library/duvet/8a7a884e0ffe99a1e5159472cfd234b7.jpg

newmtl suspended_luminaire.019
Ns 92.156863
Ka 0.000000 0.000000 0.000000
Kd 0.512000 0.512000 0.512000
Ks 0.500000 0.500000 0.500000
Ke 0.000000 0.000000 0.000000
Ni 1.000000
d 1.000000
illum 2
map_Kd ../texture_library/duvet/8a7a884e0ffe99a1e5159472cfd234b7.jpg

newmtl suspended_luminaire.020
Ns 92.156863
Ka 0.000000 0.000000 0.000000
Kd 0.512000 0.512000 0.512000
Ks 0.500000 0.500000 0.500000
Ke 0.000000 0.000000 0.000000
Ni 1.000000
d 1.000000
illum 2
map_Kd ../texture_library/duvet/8a7a884e0ffe99a1e5159472cfd234b7.jpg

newmtl suspended_luminaire.021
Ns 92.156863
Ka 0.000000 0.000000 0.000000
Kd 0.512000 0.512000 0.512000
Ks 0.500000 0.500000 0.500000
Ke 0.000000 0.000000 0.000000
Ni 1.000000
d 1.000000
illum 2
map_Kd ../texture_library/duvet/8a7a884e0ffe99a1e5159472cfd234b7.jpg

newmtl suspended_luminaire.022
Ns 92.156863
Ka 0.000000 0.000000 0.000000
Kd 0.512000 0.512000 0.512000
Ks 0.500000 0.500000 0.500000
Ke 0.000000 0.000000 0.000000
Ni 1.000000
d 1.000000
illum 2
map_Kd ../texture_library/duvet/8a7a884e0ffe99a1e5159472cfd234b7.jpg

newmtl suspended_luminaire.023
Ns 92.156863
Ka 0.000000 0.000000 0.000000
Kd 0.512000 0.512000 0.512000
Ks 0.500000 0.500000 0.500000
Ke 0.000000 0.000000 0.000000
Ni 1.000000
d 1.000000
illum 2
map_Kd ../texture_library/duvet/8a7a884e0ffe99a1e5159472cfd234b7.jpg

newmtl track_light.029
Ns 94.117647
Ka 0.000000 0.000000 0.000000
Kd 0.640000 0.640000 0.640000
Ks 0.500000 0.500000 0.500000
Ke 0.000000 0.000000 0.000000
Ni 1.000000
d 1.000000
illum 2
map_Kd /home/ankur/texture_library/lamp/images.jpg

newmtl track_light.030
Ns 94.117647
Ka 0.000000 0.000000 0.000000
Kd 0.640000 0.640000 0.640000
Ks 0.500000 0.500000 0.500000
Ke 0.000000 0.000000 0.000000
Ni 1.000000
d 1.000000
illum 2
map_Kd /home/ankur/texture_library/lamp/images.jpg

newmtl track_light.031
Ns 94.117647
Ka 0.000000 0.000000 0.000000
Kd 0.640000 0.640000 0.640000
Ks 0.500000 0.500000 0.500000
Ke 0.000000 0.000000 0.000000
Ni 1.000000
d 1.000000
illum 2
map_Kd /home/ankur/texture_library/lamp/images.jpg

newmtl track_light.032
Ns 94.117647
Ka 0.000000 0.000000 0.000000
Kd 0.640000 0.640000 0.640000
Ks 0.500000 0.500000 0.500000
Ke 0.000000 0.000000 0.000000
Ni 1.000000
d 1.000000
illum 2
map_Kd /home/ankur/texture_library/lamp/images.jpg

newmtl track_light.033
Ns 94.117647
Ka 0.000000 0.000000 0.000000
Kd 0.640000 0.640000 0.640000
Ks 0.500000 0.500000 0.500000
Ke 0.000000 0.000000 0.000000
Ni 1.000000
d 1.000000
illum 2
map_Kd /home/ankur/texture_library/lamp/images.jpg

newmtl track_light.034
Ns 94.117647
Ka 0.000000 0.000000 0.000000
Kd 0.640000 0.640000 0.640000
Ks 0.500000 0.500000 0.500000
Ke 0.000000 0.000000 0.000000
Ni 1.000000
d 1.000000
illum 2
map_Kd /home/ankur/texture_library/lamp/images.jpg

newmtl track_light.035
Ns 94.117647
Ka 0.000000 0.000000 0.000000
Kd 0.640000 0.640000 0.640000
Ks 0.500000 0.500000 0.500000
Ke 0.000000 0.000000 0.000000
Ni 1.000000
d 1.000000
illum 2
map_Kd /home/ankur/texture_library/lamp/images.jpg

newmtl track_light.036
Ns 94.117647
Ka 0.000000 0.000000 0.000000
Kd 0.640000 0.640000 0.640000
Ks 0.500000 0.500000 0.500000
Ke 0.000000 0.000000 0.000000
Ni 1.000000
d 1.000000
illum 2
map_Kd /home/ankur/texture_library/lamp/images.jpg

newmtl track_light.037
Ns 94.117647
Ka 0.000000 0.000000 0.000000
Kd 0.640000 0.640000 0.640000
Ks 0.500000 0.500000 0.500000
Ke 0.000000 0.000000 0.000000
Ni 1.000000
d 1.000000
illum 2
map_Kd /home/ankur/texture_library/lamp/images.jpg

newmtl vase.005
Ns 94.117647
Ka 0.000000 0.000000 0.000000
Kd 0.640000 0.640000 0.640000
Ks 0.500000 0.500000 0.500000
Ke 0.000000 0.000000 0.000000
Ni 1.000000
d 1.000000
illum 2
map_Kd /home/ankur/texture_library/vase/7971500x1500T2.jpgf380498a-1093-4250-be2f-24b3902db0a9Large.jpg

newmtl wall.019
Ns 94.117647
Ka 0.000000 0.000000 0.000000
Kd 0.640000 0.640000 0.640000
Ks 0.500000 0.500000 0.500000
Ke 0.000000 0.000000 0.000000
Ni 1.000000
d 1.000000
illum 2
map_Kd /home/ankur/texture_library/wall/furniture-black-painted-wall-texture-with-download-painted-cracked-wall-texture.jpg

newmtl wall.020
Ns 94.117647
Ka 0.000000 0.000000 0.000000
Kd 0.640000 0.640000 0.640000
Ks 0.500000 0.500000 0.500000
Ke 0.000000 0.000000 0.000000
Ni 1.000000
d 1.000000
illum 2

newmtl wall.021
Ns 94.117647
Ka 0.000000 0.000000 0.000000
Kd 0.640000 0.640000 0.640000
Ks 0.500000 0.500000 0.500000
Ke 0.000000 0.000000 0.000000
Ni 1.000000
d 1.000000
illum 2

newmtl wall_bottom.001
Ns 92.156863
Ka 0.000000 0.000000 0.000000
Kd 0.512000 0.512000 0.512000
Ks 0.500000 0.500000 0.500000
Ke 0.000000 0.000000 0.000000
Ni 1.000000
d 1.000000
illum 2
map_Kd /home/ankur/texture_library/wall/7f9e2f6a97c208ae05ca981c973338cb_64x64.jpg

newmtl wall_header.002
Ns 92.156863
Ka 0.000000 0.000000 0.000000
Kd 0.512000 0.512000 0.512000
Ks 0.500000 0.500000 0.500000
Ke 0.000000 0.000000 0.000000
Ni 1.000000
d 1.000000
illum 2
map_Kd /home/ankur/texture_library/wall/7f9e2f6a97c208ae05ca981c973338cb_64x64.jpg

newmtl wall_header.003
Ns 92.156863
Ka 0.000000 0.000000 0.000000
Kd 0.512000 0.512000 0.512000
Ks 0.500000 0.500000 0.500000
Ke 0.000000 0.000000 0.000000
Ni 1.000000
d 1.000000
illum 2
map_Kd /home/ankur/texture_library/wall/images.jpg

newmtl wall_screen.002
Ns 92.156863
Ka 0.000000 0.000000 0.000000
Kd 0.512000 0.512000 0.512000
Ks 0.500000 0.500000 0.500000
Ke 0.000000 0.000000 0.000000
Ni 1.000000
d 1.000000
illum 2
map_Kd /home/ankur/texture_library/wall/iStock_000005871805XSmall.jpg

newmtl wall_screen.003
Ns 92.156863
Ka 0.000000 0.000000 0.000000
Kd 0.512000 0.512000 0.512000
Ks 0.500000 0.500000 0.500000
Ke 0.000000 0.000000 0.000000
Ni 1.000000
d 1.000000
illum 2
map_Kd /home/ankur/texture_library/tv/paris.jpg
